Trends in Medicaid Income Eligibility Limits • melig
…
# The datasets are in long format
melig::parents
#> # A tibble: 1,092 × 6
#>    state                fips  usps  month   year  cutoff
#>    <chr>                <chr> <chr> <chr>   <chr>  <dbl>
#>  1 United States        <NA>  <NA>  January 2002      68
#>  2 Alabama              01    AL    January 2002      21
#>  3 Alaska               02    AK    January 2002      79
#>  4 Arizona              04    AZ    January 2002     107
#>  5 Arkansas             05    AR    January 2002      21
#>  6 California           06    CA    January 2002     107
#>  7 Colorado             08    CO    January 2002      42
#>  8 Connecticut          09    CT    January 2002     157
#>  9 Delaware             10    DE    January 2002     122
#> 10 District of Columbia 11    DC    January 2002     200
#> # ℹ 1,082 more rows

# But you can always convert them back to the original wide format
melig::parents %>% 
  unite_("monyear", c("month", "year"), sep = " ") %>% 
  spread(monyear, cutoff)
#> # A tibble: 52 × 24
#>    state  fips  usps  `April 2003` `December 2009` `January 2002` `January 2008`
#>    <chr>  <chr> <chr>        <dbl>           <dbl>          <dbl>          <dbl>
#>  1 Alaba… 01    AL              20              24             21             26
#>  2 Alaska 02    AK              81              81             79             81
#>  3 Arizo… 04    AZ             200             106            107            200
#>  4 Arkan… 05    AR              20              17             21             18
#>  5 Calif… 06    CA             107             106            107            106
#>  6 Color… 08    CO              47              66             42             66
#>  7 Conne… 09    CT             107             191            157            191
#>  8 Delaw… 10    DE             120             121            122            106
#>  9 Distr… 11    DC             200             207            200            207
#> 10 Flori… 12    FL              63              53             66             56
#> # ℹ 42 more rows
#> # ℹ 17 more variables: `January 2009` <dbl>, `January 2011` <dbl>,
#> #   `January 2012` <dbl>, `January 2013` <dbl>, `January 2014` <dbl>,
#> #   `January 2015` <dbl>, `January 2016` <dbl>, `January 2017` <dbl>,
#> #   `January 2018` <dbl>, `January 2019` <dbl>, `January 2020` <dbl>,
#> #   `January 2021` <dbl>, `January 2022` <dbl>, `January 2023` <dbl>,
#> #   `July 2004` <dbl>, `July 2005` <dbl>, `July 2006` <dbl>
…
0

Income Cutoffs for Children

Note: The children dataset, melig::children, has

a type variable that separates Medicaid and CHIP programs, and

an agegrp variable that indicates specific age groups.

Because the age information for the CHIP programs (type == CHIP) is not available from the source data, I assign a value of “0-18” to the corresponding age variable, though some states’ CHIP programs don’t cover all children under age 19 in some years.

# the data
melig::children
#> # A tibble: 4,335 × 8
#>    state   fips  usps  type             agegrp month   year  cutoff
#>    <chr>   <chr> <chr> <chr>            <chr>  <chr>   <chr>  <dbl>
#>  1 Alabama 01    AL    Medicaid         0-1    October 2000     133
#>  2 Alabama 01    AL    Medicaid         1-5    October 2000     133
#>  3 Alabama 01    AL    Medicaid         6-18   October 2000     100
#>  4 Alabama 01    AL    CHIP             0-18   October 2000     200
#>  5 Alabama 01    AL    CHIP/Mcaid Upper 0-18   October 2000     200
#>  6 Alabama 01    AL    Medicaid         0-1    January 2002     133
#>  7 Alabama 01    AL    Medicaid         1-5    January 2002     133
#>  8 Alabama 01    AL    Medicaid         6-18   January 2002     100
#>  9 Alabama 01    AL    CHIP             0-18   January 2002     200
#> 10 Alabama 01    AL    CHIP/Mcaid Upper 0-18   January 2002     200
#> # ℹ 4,325 more rows

# IL
melig::children %>% 
  filter(usps == "IL") 
#> # A tibble: 85 × 8
#>    state    fips  usps  type             agegrp month   year  cutoff
#>    <chr>    <chr> <chr> <chr>            <chr>  <chr>   <chr>  <dbl>
#>  1 Illinois 17    IL    Medicaid         0-1    October 2000     200
#>  2 Illinois 17    IL    Medicaid         1-5    October 2000     133
#>  3 Illinois 17    IL    Medicaid         6-18   October 2000     133
#>  4 Illinois 17    IL    CHIP             0-18   October 2000     185
#>  5 Illinois 17    IL    CHIP/Mcaid Upper 0-18   October 2000     200
#>  6 Illinois 17    IL    Medicaid         0-1    January 2002     200
#>  7 Illinois 17    IL    Medicaid         1-5    January 2002     133
#>  8 Illinois 17    IL    Medicaid         6-18   January 2002     133
#>  9 Illinois 17    IL    CHIP             0-18   January 2002     185
#> 10 Illinois 17    IL    CHIP/Mcaid Upper 0-18   January 2002     200
#> # ℹ 75 more rows
…
