Overview of Medicaid Income Eligibility Cutoffs Across States and Eligibility Groups • melig
…
type: Distinguishes between Medicaid and CHIP
(Children’s Health Insurance Program) programs.

agegrp: Indicates specific age groups within these
programs.

The age data for CHIP programs (type == CHIP) is not
explicitly provided in the source data. Therefore, in this dataset, a
general age range of “0-18” is assigned to the age variable for CHIP.
However, certain states’ CHIP programs may not cover all children under
age 19 in some years.

#> # A tibble: 5,720 × 8
#>    state                fips  usps  type     agegrp month    year cutoff
#>    <chr>                <chr> <chr> <chr>    <chr>  <chr>   <int>  <dbl>
#>  1 United States        NA    NA    Medicaid 0-1    October  2000     NA
#>  2 Alabama              01    AL    Medicaid 0-1    October  2000    133
#>  3 Alaska               02    AK    Medicaid 0-1    October  2000    200
#>  4 Arizona              04    AZ    Medicaid 0-1    October  2000    140
#>  5 Arkansas             05    AR    Medicaid 0-1    October  2000    200
#>  6 California           06    CA    Medicaid 0-1    October  2000    200
#>  7 Colorado             08    CO    Medicaid 0-1    October  2000    133
#>  8 Connecticut          09    CT    Medicaid 0-1    October  2000    185
#>  9 Delaware             10    DE    Medicaid 0-1    October  2000    185
#> 10 District of Columbia 11    DC    Medicaid 0-1    October  2000    200
#> # ℹ 5,710 more rows
#> # A tibble: 110 × 8
#>    state    fips  usps  type     agegrp month     year cutoff
#>    <chr>    <chr> <chr> <chr>    <chr>  <chr>    <int>  <dbl>
#>  1 Illinois 17    IL    Medicaid 0-1    October   2000    200
#>  2 Illinois 17    IL    Medicaid 0-1    January   2002    200
#>  3 Illinois 17    IL    Medicaid 0-1    April     2003    200
#>  4 Illinois 17    IL    Medicaid 0-1    July      2004    200
#>  5 Illinois 17    IL    Medicaid 0-1    July      2005    200
#>  6 Illinois 17    IL    Medicaid 0-1    July      2006    200
#>  7 Illinois 17    IL    Medicaid 0-1    January   2008    200
#>  8 Illinois 17    IL    Medicaid 0-1    January   2009    200
#>  9 Illinois 17    IL    Medicaid 0-1    December  2009    200
#> 10 Illinois 17    IL    Medicaid 0-1    January   2011    200
#> # ℹ 100 more rows
…
